{
  "sys": {
    "type": "Array"
  },
  "total": 2,
  "skip": 0,
  "limit": 1,
  "items": [
    {
      "sys": {
        "space": {
          "sys": {
            "type": "Link",
            "linkType": "Space",
            "id": "rfr9tdku11ho"
          }
        },
        "id": "3IgvQZPdfrgecPhHXM8wqD",
        "type": "Entry",
        "createdAt": "2020-09-15T07:48:40.138Z",
        "updatedAt": "2020-09-15T13:31:41.915Z",
        "environment": {
          "sys": {
            "id": "master",
            "type": "Link",
            "linkType": "Environment"
          }
        },
        "revision": 2,
        "contentType": {
          "sys": {
            "type": "Link",
            "linkType": "ContentType",
            "id": "blog"
          }
        },
        "locale": "en-US"
      },
      "fields": {
        "title": "Sex Workers' Rights - Stop Me When This Starts To Sound Familiar (1)",
        "postSlug": "sex-workers-rights-stop-me-when-this-starts-to-sound-familiar-1",
        "thumbnail": {
          "sys": {
            "type": "Link",
            "linkType": "Asset",
            "id": "4XDiTGDT9kT9wXFPRB6YjU"
          }
        },
        "excerpt": "Continuing our series of escorts by nationality, we’re taking a look at Croatian escorts!",
        "content": {
          "data": {},
          "content": [
            {
              "data": {},
              "content": [
                {
                  "data": {},
                  "marks": [],
                  "value": "ontinuing our series of escorts by nationality, we’re taking a look at Croatian escorts! Here at our London escort agency, you can find international callgirls from all over the world. From Romanian escorts to Portuguese escorts, we provide you with all of the information to make an informed choice. That way, you can be sure that your next date will be perfect for you.\n\nCallgirls from Croatia are very special indeed. If you find one, be sure to treasure her as she’s likely in high demand. That’s because Croatian escorts are known known around the world for their beauty. If you like long legs then you’ll love the women of Croatia who tend to be tall. In fact, they’re known to have something of a Mediterranean complexion with sun-kissed skin while their bodies are slim and sexy.\n\nIf anything, Croatian escorts tend to be brunettes and have model-like bodies. In particular, they have spectacular asses and will dress accordingly to show off such features! Indeed, callgirls from Croatia embrace their femininity, often wearing sexy dresses or very tight-fitting jeans, depending on the occasion. Because they follow fashion very closely, our international callgirls always choose the right outfit whether it’s for a formal dinner or fun party.\n\nOf course, a London escort is so much more than just her appearance. Personality is incredibly important and Croatian escorts have this in abundance. These are super sweet girls that will do almost anything to please. Treat her like the lady that she is and she’ll reward you ten times over. Be sure to compliment her and she will be very happy indeed. This is because callgirls from Croatia love attention from their clients.\n\nAnother trait to expect from your Croatian escort is open-mindedness. This is fantastic when it comes to planning a date. As such, you can expect her to be quite happy going to the theatre, a romantic London restaurant or simply staying with you at home. It’s also brilliant for the bedroom since it means that they offer and enjoy so many sensual services. You can therefore expect any London escort date with a callgirl from Croatia to be exciting and erotic!\n\nSo what should you do when you’re dating a Croatian escort? Well, because these girls are so easy-going, you can do almost anything! They have a wide range of interests and many are actually students in London. Therefore you might want to do something related to their studies whether that means visiting a museum or going to an art gallery. The beauty of a date with a callgirl from Croatia is that there is no wrong option - you have so many choices!\n\nDo you like what you hear? If so, you should make a Croatian escort your next London date! Explore our gallery of international callgirls and you’re almost certain to find something you like. If there’s too much choice for you to handle, give us a call and we’ll match you with the perfect callgirl from Croatia!",
                  "nodeType": "text"
                }
              ],
              "nodeType": "paragraph"
            }
          ],
          "nodeType": "document"
        },
        "category": {
          "sys": {
            "type": "Link",
            "linkType": "Entry",
            "id": "7afQsS67jwrAoZozFcS5W4"
          }
        },
        "author": {
          "sys": {
            "type": "Link",
            "linkType": "Entry",
            "id": "42ibg2zlyePXgftpzZfiC9"
          }
        }
      }
    }
  ],
  "includes": {
    "Entry": [
      {
        "sys": {
          "space": {
            "sys": {
              "type": "Link",
              "linkType": "Space",
              "id": "rfr9tdku11ho"
            }
          },
          "id": "42ibg2zlyePXgftpzZfiC9",
          "type": "Entry",
          "createdAt": "2020-09-11T04:38:09.496Z",
          "updatedAt": "2020-09-11T04:38:09.496Z",
          "environment": {
            "sys": {
              "id": "master",
              "type": "Link",
              "linkType": "Environment"
            }
          },
          "revision": 1,
          "contentType": {
            "sys": {
              "type": "Link",
              "linkType": "ContentType",
              "id": "blogAuthor"
            }
          },
          "locale": "en-US"
        },
        "fields": {
          "name": "Ruby Shanley"
        }
      },
      {
        "sys": {
          "space": {
            "sys": {
              "type": "Link",
              "linkType": "Space",
              "id": "rfr9tdku11ho"
            }
          },
          "id": "7afQsS67jwrAoZozFcS5W4",
          "type": "Entry",
          "createdAt": "2020-09-11T04:29:28.575Z",
          "updatedAt": "2020-09-15T09:19:55.850Z",
          "environment": {
            "sys": {
              "id": "master",
              "type": "Link",
              "linkType": "Environment"
            }
          },
          "revision": 2,
          "contentType": {
            "sys": {
              "type": "Link",
              "linkType": "ContentType",
              "id": "blogCategory"
            }
          },
          "locale": "en-US"
        },
        "fields": {
          "title": "Erotic stories",
          "slug": "erotic-stories"
        }
      }
    ],
    "Asset": [
      {
        "sys": {
          "space": {
            "sys": {
              "type": "Link",
              "linkType": "Space",
              "id": "rfr9tdku11ho"
            }
          },
          "id": "4XDiTGDT9kT9wXFPRB6YjU",
          "type": "Asset",
          "createdAt": "2020-09-09T10:32:27.841Z",
          "updatedAt": "2020-09-12T18:08:25.882Z",
          "environment": {
            "sys": {
              "id": "master",
              "type": "Link",
              "linkType": "Environment"
            }
          },
          "revision": 2,
          "locale": "en-US"
        },
        "fields": {
          "title": "Jessica-7",
          "description": "Jessica, Croatian escorts",
          "file": {
            "url": "//images.ctfassets.net/rfr9tdku11ho/4XDiTGDT9kT9wXFPRB6YjU/9eaeb276169ddee8d565a0b9a31db20f/Jessica-7.jpeg",
            "details": {
              "size": 342029,
              "image": {
                "width": 900,
                "height": 600
              }
            },
            "fileName": "Jessica-7.jpeg",
            "contentType": "image/jpeg"
          }
        }
      }
    ]
  }
}
